{
  "emojis": [
    {
      "id": "atlassian-disapproval",
      "name": "disapproval",
      "fallback": ":disapproval:",
      "type": "ATLASSIAN",
      "category": "ATLASSIAN",
      "order": -1000,
      "representation": {
        "imagePath": "https://pf-emoji-service--cdn.useast.atlassian.io/atlassian/disapproval@4x.png",
        "height": 72,
        "width": 92
      },
      "searchable": true,
      "shortName": ":disapproval:"
    },
    {
      "id": "atlassian-feelsgoodman",
      "name": "feels good man",
      "fallback": ":feelsgoodman:",
      "type": "ATLASSIAN",
      "category": "ATLASSIAN",
      "order": -1000,
      "representation": {
        "imagePath": "https://pf-emoji-service--cdn.useast.atlassian.io/atlassian/feels_good_man@4x.png",
        "height": 96,
        "width": 120
      },
      "searchable": true,
      "shortName": ":feelsgoodman:"
    },
    {
      "id": "atlassian-skyrim",
      "name": "skyrim",
      "fallback": ":skyrim:",
      "type": "ATLASSIAN",
      "category": "ATLASSIAN",
      "order": -1000,
      "representation": {
        "imagePath": "https://pf-emoji-service--cdn.useast.atlassian.io/atlassian/skyrim@4x.png",
        "height": 120,
        "width": 68
      },
      "searchable": true,
      "shortName": ":skyrim:"
    },
    {
      "id": "atlassian-branch",
      "name": "branch",
      "fallback": ":branch:",
      "type": "ATLASSIAN",
      "category": "ATLASSIAN",
      "order": -1000,
      "representation": {
        "imagePath": "https://pf-emoji-service--cdn.useast.atlassian.io/atlassian/branch@4x.png",
        "height": 64,
        "width": 64
      },
      "searchable": true,
      "shortName": ":branch:"
    },
    {
      "id": "atlassian-upvote",
      "name": "upvote",
      "fallback": ":upvote:",
      "type": "ATLASSIAN",
      "category": "ATLASSIAN",
      "order": -1000,
      "representation": {
        "imagePath": "https://pf-emoji-service--cdn.useast.atlassian.io/atlassian/upvote@4x.png",
        "height": 120,
        "width": 116
      },
      "searchable": true,
      "shortName": ":upvote:"
    },
    {
      "id": "atlassian-ban",
      "name": "ban",
      "fallback": ":ban:",
      "type": "ATLASSIAN",
      "category": "ATLASSIAN",
      "order": -1000,
      "representation": {
        "imagePath": "https://pf-emoji-service--cdn.useast.atlassian.io/atlassian/ban.jpg",
        "height": 30,
        "width": 30
      },
      "searchable": true,
      "shortName": ":ban:"
    },
    {
      "id": "atlassian-ftfy",
      "name": "ftfy",
      "fallback": ":ftfy:",
      "type": "ATLASSIAN",
      "category": "ATLASSIAN",
      "order": -1000,
      "representation": {
        "imagePath": "https://pf-emoji-service--cdn.useast.atlassian.io/atlassian/ftfy@4x.png",
        "height": 120,
        "width": 120
      },
      "searchable": true,
      "shortName": ":ftfy:"
    },
    {
      "id": "atlassian-twss",
      "name": "twss",
      "fallback": ":twss:",
      "type": "ATLASSIAN",
      "category": "ATLASSIAN",
      "order": -1000,
      "representation": {
        "imagePath": "https://pf-emoji-service--cdn.useast.atlassian.io/atlassian/twss@4x.png",
        "height": 100,
        "width": 80
      },
      "searchable": true,
      "shortName": ":twss:"
    },
    {
      "id": "atlassian-standup",
      "name": "standup",
      "fallback": ":standup:",
      "type": "ATLASSIAN",
      "category": "ATLASSIAN",
      "order": -1000,
      "representation": {
        "imagePath": "https://pf-emoji-service--cdn.useast.atlassian.io/atlassian/standup.gif",
        "height": 28,
        "width": 16
      },
      "searchable": true,
      "shortName": ":standup:"
    },
    {
      "id": "atlassian-reddit",
      "name": "reddit",
      "fallback": ":reddit:",
      "type": "ATLASSIAN",
      "category": "ATLASSIAN",
      "order": -1000,
      "representation": {
        "imagePath": "https://pf-emoji-service--cdn.useast.atlassian.io/atlassian/reddit@4x.png",
        "height": 100,
        "width": 72
      },
      "searchable": true,
      "shortName": ":reddit:"
    },
    {
      "id": "atlassian-dance",
      "name": "dance",
      "fallback": ":dance:",
      "type": "ATLASSIAN",
      "category": "ATLASSIAN",
      "order": -1000,
      "representation": {
        "imagePath": "https://pf-emoji-service--cdn.useast.atlassian.io/atlassian/dance.gif",
        "height": 23,
        "width": 26
      },
      "searchable": true,
      "shortName": ":dance:"
    },
    {
      "id": "atlassian-bunny",
      "name": "bunny",
      "fallback": ":bunny:",
      "type": "ATLASSIAN",
      "category": "ATLASSIAN",
      "order": -1000,
      "representation": {
        "imagePath": "https://pf-emoji-service--cdn.useast.atlassian.io/atlassian/bunny@4x.png",
        "height": 96,
        "width": 96
      },
      "searchable": true,
      "shortName": ":bunny:"
    },
    {
      "id": "atlassian-itsatrap",
      "name": "it's a trap",
      "fallback": ":itsatrap:",
      "type": "ATLASSIAN",
      "category": "ATLASSIAN",
      "order": -1000,
      "representation": {
        "imagePath": "https://pf-emoji-service--cdn.useast.atlassian.io/atlassian/it's_a_trap@4x.png",
        "height": 100,
        "width": 100
      },
      "searchable": true,
      "shortName": ":itsatrap:"
    },
    {
      "id": "atlassian-chucknorris",
      "name": "chuck norris",
      "fallback": ":chucknorris:",
      "type": "ATLASSIAN",
      "category": "ATLASSIAN",
      "order": -1000,
      "representation": {
        "imagePath": "https://pf-emoji-service--cdn.useast.atlassian.io/atlassian/chuck_norris@4x.png",
        "height": 88,
        "width": 100
      },
      "searchable": true,
      "shortName": ":chucknorris:"
    },
    {
      "id": "atlassian-dosequis",
      "name": "dosequis",
      "fallback": ":dosequis:",
      "type": "ATLASSIAN",
      "category": "ATLASSIAN",
      "order": -1000,
      "representation": {
        "imagePath": "https://pf-emoji-service--cdn.useast.atlassian.io/atlassian/dosequis@4x.png",
        "height": 100,
        "width": 100
      },
      "searchable": true,
      "shortName": ":dosequis:"
    },
    {
      "id": "atlassian-banks",
      "name": "banks",
      "fallback": ":banks:",
      "type": "ATLASSIAN",
      "category": "ATLASSIAN",
      "order": -1000,
      "representation": {
        "imagePath": "https://pf-emoji-service--cdn.useast.atlassian.io/atlassian/banks.gif",
        "height": 23,
        "width": 29
      },
      "searchable": true,
      "shortName": ":banks:"
    },
    {
      "id": "atlassian-excellent",
      "name": "excellent",
      "fallback": ":excellent:",
      "type": "ATLASSIAN",
      "category": "ATLASSIAN",
      "order": -1000,
      "representation": {
        "imagePath": "https://pf-emoji-service--cdn.useast.atlassian.io/atlassian/excellent@4x.png",
        "height": 120,
        "width": 76
      },
      "searchable": true,
      "shortName": ":excellent:"
    },
    {
      "id": "atlassian-bamboo",
      "name": "bamboo",
      "fallback": ":bamboo:",
      "type": "ATLASSIAN",
      "category": "ATLASSIAN",
      "order": -1000,
      "representation": {
        "imagePath": "https://pf-emoji-service--cdn.useast.atlassian.io/atlassian/bamboo@4x.png",
        "height": 120,
        "width": 120
      },
      "searchable": true,
      "shortName": ":bamboo:"
    },
    {
      "id": "atlassian-ducreux",
      "name": "ducreux",
      "fallback": ":ducreux:",
      "type": "ATLASSIAN",
      "category": "ATLASSIAN",
      "order": -1000,
      "representation": {
        "imagePath": "https://pf-emoji-service--cdn.useast.atlassian.io/atlassian/ducreux@4x.png",
        "height": 100,
        "width": 100
      },
      "searchable": true,
      "shortName": ":ducreux:"
    },
    {
      "id": "atlassian-donotwant",
      "name": "do not want",
      "fallback": ":donotwant:",
      "type": "ATLASSIAN",
      "category": "ATLASSIAN",
      "order": -1000,
      "representation": {
        "imagePath": "https://pf-emoji-service--cdn.useast.atlassian.io/atlassian/do_not_want@4x.png",
        "height": 120,
        "width": 120
      },
      "searchable": true,
      "shortName": ":donotwant:"
    },
    {
      "id": "atlassian-kwanzaa",
      "name": "kwanzaa",
      "fallback": ":kwanzaa:",
      "type": "ATLASSIAN",
      "category": "ATLASSIAN",
      "order": -1000,
      "representation": {
        "imagePath": "https://pf-emoji-service--cdn.useast.atlassian.io/atlassian/kwanzaa@4x.png",
        "height": 88,
        "width": 100
      },
      "searchable": true,
      "shortName": ":kwanzaa:"
    },
    {
      "id": "atlassian-freddie",
      "name": "freddie",
      "fallback": ":freddie:",
      "type": "ATLASSIAN",
      "category": "ATLASSIAN",
      "order": -1000,
      "representation": {
        "imagePath": "https://pf-emoji-service--cdn.useast.atlassian.io/atlassian/freddie@4x.png",
        "height": 140,
        "width": 68
      },
      "searchable": true,
      "shortName": ":freddie:"
    },
    {
      "id": "atlassian-drevil",
      "name": "drevil",
      "fallback": ":drevil:",
      "type": "ATLASSIAN",
      "category": "ATLASSIAN",
      "order": -1000,
      "representation": {
        "imagePath": "https://pf-emoji-service--cdn.useast.atlassian.io/atlassian/drevil@4x.png",
        "height": 100,
        "width": 148
      },
      "searchable": true,
      "shortName": ":drevil:"
    },
    {
      "id": "atlassian-noidea",
      "name": "no idea",
      "fallback": ":noidea:",
      "type": "ATLASSIAN",
      "category": "ATLASSIAN",
      "order": -1000,
      "representation": {
        "imagePath": "https://pf-emoji-service--cdn.useast.atlassian.io/atlassian/no_idea@4x.png",
        "height": 120,
        "width": 84
      },
      "searchable": true,
      "shortName": ":noidea:"
    },
    {
      "id": "atlassian-gtfo",
      "name": "gtfo",
      "fallback": ":gtfo:",
      "type": "ATLASSIAN",
      "category": "ATLASSIAN",
      "order": -1000,
      "representation": {
        "imagePath": "https://pf-emoji-service--cdn.useast.atlassian.io/atlassian/gtfo@4x.png",
        "height": 100,
        "width": 100
      },
      "searchable": true,
      "shortName": ":gtfo:"
    },
    {
      "id": "atlassian-omg",
      "name": "omg",
      "fallback": ":omg:",
      "type": "ATLASSIAN",
      "category": "ATLASSIAN",
      "order": -1000,
      "representation": {
        "imagePath": "https://pf-emoji-service--cdn.useast.atlassian.io/atlassian/omg@4x.png",
        "height": 92,
        "width": 100
      },
      "searchable": true,
      "shortName": ":omg:"
    },
    {
      "id": "atlassian-whynotboth",
      "name": "why not both",
      "fallback": ":whynotboth:",
      "type": "ATLASSIAN",
      "category": "ATLASSIAN",
      "order": -1000,
      "representation": {
        "imagePath": "https://pf-emoji-service--cdn.useast.atlassian.io/atlassian/why_not_both.gif",
        "height": 37,
        "width": 37
      },
      "searchable": true,
      "shortName": ":whynotboth:"
    },
    {
      "id": "atlassian-pokerface",
      "name": "poker face",
      "fallback": ":pokerface:",
      "type": "ATLASSIAN",
      "category": "ATLASSIAN",
      "order": -1000,
      "representation": {
        "imagePath": "https://pf-emoji-service--cdn.useast.atlassian.io/atlassian/poker_face@4x.png",
        "height": 100,
        "width": 71
      },
      "searchable": true,
      "shortName": ":pokerface:"
    },
    {
      "id": "atlassian-evilburns",
      "name": "evilburns",
      "fallback": ":evilburns:",
      "type": "ATLASSIAN",
      "category": "ATLASSIAN",
      "order": -1000,
      "representation": {
        "imagePath": "https://pf-emoji-service--cdn.useast.atlassian.io/atlassian/evilburns@4x.png",
        "height": 120,
        "width": 96
      },
      "searchable": true,
      "shortName": ":evilburns:"
    },
    {
      "id": "atlassian-derp",
      "name": "derp",
      "fallback": ":derp:",
      "type": "ATLASSIAN",
      "category": "ATLASSIAN",
      "order": -1000,
      "representation": {
        "imagePath": "https://pf-emoji-service--cdn.useast.atlassian.io/atlassian/derp@4x.png",
        "height": 120,
        "width": 113
      },
      "searchable": true,
      "shortName": ":derp:"
    },
    {
      "id": "atlassian-youdontsay",
      "name": "you don't say",
      "fallback": ":youdontsay:",
      "type": "ATLASSIAN",
      "category": "ATLASSIAN",
      "order": -1000,
      "representation": {
        "imagePath": "https://pf-emoji-service--cdn.useast.atlassian.io/atlassian/you_don't_say@4x.png",
        "height": 72,
        "width": 120
      },
      "searchable": true,
      "shortName": ":youdontsay:"
    },
    {
      "id": "atlassian-whoa",
      "name": "whoa",
      "fallback": ":whoa:",
      "type": "ATLASSIAN",
      "category": "ATLASSIAN",
      "order": -1000,
      "representation": {
        "imagePath": "https://pf-emoji-service--cdn.useast.atlassian.io/atlassian/whoa@4x.png",
        "height": 112,
        "width": 120
      },
      "searchable": true,
      "shortName": ":whoa:"
    },
    {
      "id": "atlassian-chocobunny",
      "name": "choco bunny",
      "fallback": ":chocobunny:",
      "type": "ATLASSIAN",
      "category": "ATLASSIAN",
      "order": -1000,
      "representation": {
        "imagePath": "https://pf-emoji-service--cdn.useast.atlassian.io/atlassian/choco_bunny@4x.png",
        "height": 100,
        "width": 100
      },
      "searchable": true,
      "shortName": ":chocobunny:"
    },
    {
      "id": "atlassian-notbad",
      "name": "not bad",
      "fallback": ":notbad:",
      "type": "ATLASSIAN",
      "category": "ATLASSIAN",
      "order": -1000,
      "representation": {
        "imagePath": "https://pf-emoji-service--cdn.useast.atlassian.io/atlassian/not_bad@4x.png",
        "height": 120,
        "width": 82
      },
      "searchable": true,
      "shortName": ":notbad:"
    },
    {
      "id": "atlassian-samuel",
      "name": "samuel",
      "fallback": ":samuel:",
      "type": "ATLASSIAN",
      "category": "ATLASSIAN",
      "order": -1000,
      "representation": {
        "imagePath": "https://pf-emoji-service--cdn.useast.atlassian.io/atlassian/samuel@4x.png",
        "height": 100,
        "width": 76
      },
      "searchable": true,
      "shortName": ":samuel:"
    },
    {
      "id": "atlassian-pinkribbon",
      "name": "pink ribbon",
      "fallback": ":pinkribbon:",
      "type": "ATLASSIAN",
      "category": "ATLASSIAN",
      "order": -1000,
      "representation": {
        "imagePath": "https://pf-emoji-service--cdn.useast.atlassian.io/atlassian/pink_ribbon@2x.png",
        "height": 58,
        "width": 36
      },
      "searchable": true,
      "shortName": ":pinkribbon:"
    },
    {
      "id": "atlassian-bicepleft",
      "name": "bicep left",
      "fallback": ":bicepleft:",
      "type": "ATLASSIAN",
      "category": "ATLASSIAN",
      "order": -1000,
      "representation": {
        "imagePath": "https://pf-emoji-service--cdn.useast.atlassian.io/atlassian/bicep_left@4x.png",
        "height": 120,
        "width": 100
      },
      "searchable": true,
      "shortName": ":bicepleft:"
    },
    {
      "id": "atlassian-jobs",
      "name": "jobs",
      "fallback": ":jobs:",
      "type": "ATLASSIAN",
      "category": "ATLASSIAN",
      "order": -1000,
      "representation": {
        "imagePath": "https://pf-emoji-service--cdn.useast.atlassian.io/atlassian/jobs@4x.png",
        "height": 88,
        "width": 100
      },
      "searchable": true,
      "shortName": ":jobs:"
    },
    {
      "id": "atlassian-troll",
      "name": "troll",
      "fallback": ":troll:",
      "type": "ATLASSIAN",
      "category": "ATLASSIAN",
      "order": -1000,
      "representation": {
        "imagePath": "https://pf-emoji-service--cdn.useast.atlassian.io/atlassian/troll@4x.png",
        "height": 100,
        "width": 100
      },
      "searchable": true,
      "shortName": ":troll:"
    },
    {
      "id": "atlassian-hipchat",
      "name": "hipchat",
      "fallback": ":hipchat:",
      "type": "ATLASSIAN",
      "category": "ATLASSIAN",
      "order": -1000,
      "representation": {
        "imagePath": "https://pf-emoji-service--cdn.useast.atlassian.io/atlassian/hipchat@4x.png",
        "height": 120,
        "width": 120
      },
      "searchable": true,
      "shortName": ":hipchat:"
    },
    {
      "id": "atlassian-cancerribbon",
      "name": "cancer ribbon",
      "fallback": ":cancerribbon:",
      "type": "ATLASSIAN",
      "category": "ATLASSIAN",
      "order": -1000,
      "representation": {
        "imagePath": "https://pf-emoji-service--cdn.useast.atlassian.io/atlassian/cancer_ribbon@2x.png",
        "height": 59,
        "width": 38
      },
      "searchable": true,
      "shortName": ":cancerribbon:"
    },
    {
      "id": "atlassian-fonzie",
      "name": "fonzie",
      "fallback": ":fonzie:",
      "type": "ATLASSIAN",
      "category": "ATLASSIAN",
      "order": -1000,
      "representation": {
        "imagePath": "https://pf-emoji-service--cdn.useast.atlassian.io/atlassian/fonzie@4x.png",
        "height": 100,
        "width": 136
      },
      "searchable": true,
      "shortName": ":fonzie:"
    },
    {
      "id": "atlassian-awesome",
      "name": "awesome",
      "fallback": ":awesome:",
      "type": "ATLASSIAN",
      "category": "ATLASSIAN",
      "order": -1000,
      "representation": {
        "imagePath": "https://pf-emoji-service--cdn.useast.atlassian.io/atlassian/awesome@4x.png",
        "height": 120,
        "width": 120
      },
      "searchable": true,
      "shortName": ":awesome:"
    },
    {
      "id": "atlassian-lincoln",
      "name": "lincoln",
      "fallback": ":lincoln:",
      "type": "ATLASSIAN",
      "category": "ATLASSIAN",
      "order": -1000,
      "representation": {
        "imagePath": "https://pf-emoji-service--cdn.useast.atlassian.io/atlassian/lincoln@4x.png",
        "height": 100,
        "width": 100
      },
      "searchable": true,
      "shortName": ":lincoln:"
    },
    {
      "id": "atlassian-corpsethumb",
      "name": "corpse thumb",
      "fallback": ":corpsethumb:",
      "type": "ATLASSIAN",
      "category": "ATLASSIAN",
      "order": -1000,
      "representation": {
        "imagePath": "https://pf-emoji-service--cdn.useast.atlassian.io/atlassian/corpse_thumb@4x.png",
        "height": 80,
        "width": 80
      },
      "searchable": true,
      "shortName": ":corpsethumb:"
    },
    {
      "id": "atlassian-sadtroll",
      "name": "sad troll",
      "fallback": ":sadtroll:",
      "type": "ATLASSIAN",
      "category": "ATLASSIAN",
      "order": -1000,
      "representation": {
        "imagePath": "https://pf-emoji-service--cdn.useast.atlassian.io/atlassian/sad_troll@4x.png",
        "height": 80,
        "width": 100
      },
      "searchable": true,
      "shortName": ":sadtroll:"
    },
    {
      "id": "atlassian-allthethings",
      "name": "all the things",
      "fallback": ":allthethings:",
      "type": "ATLASSIAN",
      "category": "ATLASSIAN",
      "order": -1000,
      "representation": {
        "imagePath": "https://pf-emoji-service--cdn.useast.atlassian.io/atlassian/all_the_things@4x.png",
        "height": 120,
        "width": 144
      },
      "searchable": true,
      "shortName": ":allthethings:"
    },
    {
      "id": "atlassian-menorah",
      "name": "menorah",
      "fallback": ":menorah:",
      "type": "ATLASSIAN",
      "category": "ATLASSIAN",
      "order": -1000,
      "representation": {
        "imagePath": "https://pf-emoji-service--cdn.useast.atlassian.io/atlassian/menorah@4x.png",
        "height": 100,
        "width": 92
      },
      "searchable": true,
      "shortName": ":menorah:"
    },
    {
      "id": "atlassian-confluence",
      "name": "confluence",
      "fallback": ":confluence:",
      "type": "ATLASSIAN",
      "category": "ATLASSIAN",
      "order": -1000,
      "representation": {
        "imagePath": "https://pf-emoji-service--cdn.useast.atlassian.io/atlassian/confluence@4x.png",
        "height": 120,
        "width": 120
      },
      "searchable": true,
      "shortName": ":confluence:"
    },
    {
      "id": "atlassian-orly",
      "name": "orly",
      "fallback": ":orly:",
      "type": "ATLASSIAN",
      "category": "ATLASSIAN",
      "order": -1000,
      "representation": {
        "imagePath": "https://pf-emoji-service--cdn.useast.atlassian.io/atlassian/orly@4x.png",
        "height": 96,
        "width": 96
      },
      "searchable": true,
      "shortName": ":orly:"
    },
    {
      "id": "atlassian-doge",
      "name": "doge",
      "fallback": ":doge:",
      "type": "ATLASSIAN",
      "category": "ATLASSIAN",
      "order": -1000,
      "representation": {
        "imagePath": "https://pf-emoji-service--cdn.useast.atlassian.io/atlassian/doge@4x.png",
        "height": 100,
        "width": 96
      },
      "searchable": true,
      "shortName": ":doge:"
    },
    {
      "id": "atlassian-drool",
      "name": "drool",
      "fallback": ":drool:",
      "type": "ATLASSIAN",
      "category": "ATLASSIAN",
      "order": -1000,
      "representation": {
        "imagePath": "https://pf-emoji-service--cdn.useast.atlassian.io/atlassian/drool@4x.png",
        "height": 120,
        "width": 104
      },
      "searchable": true,
      "shortName": ":drool:"
    },
    {
      "id": "atlassian-greenbeer",
      "name": "green beer",
      "fallback": ":greenbeer:",
      "type": "ATLASSIAN",
      "category": "ATLASSIAN",
      "order": -1000,
      "representation": {
        "imagePath": "https://pf-emoji-service--cdn.useast.atlassian.io/atlassian/green_beer@4x.png",
        "height": 80,
        "width": 80
      },
      "searchable": true,
      "shortName": ":greenbeer:"
    },
    {
      "id": "atlassian-shrug",
      "name": "shrug",
      "fallback": ":shrug:",
      "type": "ATLASSIAN",
      "category": "ATLASSIAN",
      "order": -1000,
      "representation": {
        "imagePath": "https://pf-emoji-service--cdn.useast.atlassian.io/atlassian/shrug@4x.png",
        "height": 64,
        "width": 258
      },
      "searchable": true,
      "shortName": ":shrug:"
    },
    {
      "id": "atlassian-tyrion",
      "name": "tyrion",
      "fallback": ":tyrion:",
      "type": "ATLASSIAN",
      "category": "ATLASSIAN",
      "order": -1000,
      "representation": {
        "imagePath": "https://pf-emoji-service--cdn.useast.atlassian.io/atlassian/tyrion@4x.png",
        "height": 124,
        "width": 108
      },
      "searchable": true,
      "shortName": ":tyrion:"
    },
    {
      "id": "atlassian-bitbucket",
      "name": "bitbucket",
      "fallback": ":bitbucket:",
      "type": "ATLASSIAN",
      "category": "ATLASSIAN",
      "order": -1000,
      "representation": {
        "imagePath": "https://pf-emoji-service--cdn.useast.atlassian.io/atlassian/bitbucket@4x.png",
        "height": 120,
        "width": 120
      },
      "searchable": true,
      "shortName": ":bitbucket:"
    },
    {
      "id": "atlassian-nextgendev",
      "name": "next gen dev",
      "fallback": ":nextgendev:",
      "type": "ATLASSIAN",
      "category": "ATLASSIAN",
      "order": -1000,
      "representation": {
        "imagePath": "https://pf-emoji-service--cdn.useast.atlassian.io/atlassian/next_gen_dev@4x.png",
        "height": 116,
        "width": 92
      },
      "searchable": true,
      "shortName": ":nextgendev:"
    },
    {
      "id": "atlassian-chompy",
      "name": "chompy",
      "fallback": ":chompy:",
      "type": "ATLASSIAN",
      "category": "ATLASSIAN",
      "order": -1000,
      "representation": {
        "imagePath": "https://pf-emoji-service--cdn.useast.atlassian.io/atlassian/chompy.gif",
        "height": 25,
        "width": 25
      },
      "searchable": true,
      "shortName": ":chompy:"
    },
    {
      "id": "atlassian-continue",
      "name": "continue",
      "fallback": ":continue:",
      "type": "ATLASSIAN",
      "category": "ATLASSIAN",
      "order": -1000,
      "representation": {
        "imagePath": "https://pf-emoji-service--cdn.useast.atlassian.io/atlassian/continue@4x.png",
        "height": 64,
        "width": 64
      },
      "searchable": true,
      "shortName": ":continue:"
    },
    {
      "id": "atlassian-notsureifgusta",
      "name": "not sure if gusta",
      "fallback": ":notsureifgusta:",
      "type": "ATLASSIAN",
      "category": "ATLASSIAN",
      "order": -1000,
      "representation": {
        "imagePath": "https://pf-emoji-service--cdn.useast.atlassian.io/atlassian/not_sure_if_gusta@4x.png",
        "height": 120,
        "width": 120
      },
      "searchable": true,
      "shortName": ":notsureifgusta:"
    },
    {
      "id": "atlassian-badass",
      "name": "badass",
      "fallback": ":badass:",
      "type": "ATLASSIAN",
      "category": "ATLASSIAN",
      "order": -1000,
      "representation": {
        "imagePath": "https://pf-emoji-service--cdn.useast.atlassian.io/atlassian/badass@4x.png",
        "height": 92,
        "width": 120
      },
      "searchable": true,
      "shortName": ":badass:"
    },
    {
      "id": "atlassian-iseewhatyoudidthere",
      "name": "i see what you did there",
      "fallback": ":iseewhatyoudidthere:",
      "type": "ATLASSIAN",
      "category": "ATLASSIAN",
      "order": -1000,
      "representation": {
        "imagePath": "https://pf-emoji-service--cdn.useast.atlassian.io/atlassian/i_see_what_you_did_there@4x.png",
        "height": 100,
        "width": 112
      },
      "searchable": true,
      "shortName": ":iseewhatyoudidthere:"
    },
    {
      "id": "atlassian-cadbury",
      "name": "cadbury",
      "fallback": ":cadbury:",
      "type": "ATLASSIAN",
      "category": "ATLASSIAN",
      "order": -1000,
      "representation": {
        "imagePath": "https://pf-emoji-service--cdn.useast.atlassian.io/atlassian/cadbury@4x.png",
        "height": 72,
        "width": 100
      },
      "searchable": true,
      "shortName": ":cadbury:"
    },
    {
      "id": "atlassian-daenerys",
      "name": "daenerys",
      "fallback": ":daenerys:",
      "type": "ATLASSIAN",
      "category": "ATLASSIAN",
      "order": -1000,
      "representation": {
        "imagePath": "https://pf-emoji-service--cdn.useast.atlassian.io/atlassian/daenerys@4x.png",
        "height": 100,
        "width": 130
      },
      "searchable": true,
      "shortName": ":daenerys:"
    },
    {
      "id": "atlassian-facepalm",
      "name": "facepalm",
      "fallback": ":facepalm:",
      "type": "ATLASSIAN",
      "category": "ATLASSIAN",
      "order": -1000,
      "representation": {
        "imagePath": "https://pf-emoji-service--cdn.useast.atlassian.io/atlassian/facepalm@4x.png",
        "height": 100,
        "width": 100
      },
      "searchable": true,
      "shortName": ":facepalm:"
    },
    {
      "id": "atlassian-nothingtodohere",
      "name": "nothing to do here",
      "fallback": ":nothingtodohere:",
      "type": "ATLASSIAN",
      "category": "ATLASSIAN",
      "order": -1000,
      "representation": {
        "imagePath": "https://pf-emoji-service--cdn.useast.atlassian.io/atlassian/nothing_to_do_here@4x.png",
        "height": 100,
        "width": 64
      },
      "searchable": true,
      "shortName": ":nothingtodohere:"
    },
    {
      "id": "atlassian-dwaboutit",
      "name": "dwaboutit",
      "fallback": ":dwaboutit:",
      "type": "ATLASSIAN",
      "category": "ATLASSIAN",
      "order": -1000,
      "representation": {
        "imagePath": "https://pf-emoji-service--cdn.useast.atlassian.io/atlassian/dwaboutit@2x.png",
        "height": 40,
        "width": 40
      },
      "searchable": true,
      "shortName": ":dwaboutit:"
    },
    {
      "id": "atlassian-ninja",
      "name": "ninja",
      "fallback": ":ninja:",
      "type": "ATLASSIAN",
      "category": "ATLASSIAN",
      "order": -1000,
      "representation": {
        "imagePath": "https://pf-emoji-service--cdn.useast.atlassian.io/atlassian/ninja@4x.png",
        "height": 72,
        "width": 72
      },
      "searchable": true,
      "shortName": ":ninja:"
    },
    {
      "id": "atlassian-success",
      "name": "success",
      "fallback": ":success:",
      "type": "ATLASSIAN",
      "category": "ATLASSIAN",
      "order": -1000,
      "representation": {
        "imagePath": "https://pf-emoji-service--cdn.useast.atlassian.io/atlassian/success@4x.png",
        "height": 100,
        "width": 100
      },
      "searchable": true,
      "shortName": ":success:"
    },
    {
      "id": "atlassian-forscale",
      "name": "for scale",
      "fallback": ":forscale:",
      "type": "ATLASSIAN",
      "category": "ATLASSIAN",
      "order": -1000,
      "representation": {
        "imagePath": "https://pf-emoji-service--cdn.useast.atlassian.io/atlassian/for_scale@4x.png",
        "height": 74,
        "width": 120
      },
      "searchable": true,
      "shortName": ":forscale:"
    },
    {
      "id": "atlassian-ceilingcat",
      "name": "ceiling cat",
      "fallback": ":ceilingcat:",
      "type": "ATLASSIAN",
      "category": "ATLASSIAN",
      "order": -1000,
      "representation": {
        "imagePath": "https://pf-emoji-service--cdn.useast.atlassian.io/atlassian/ceiling_cat@4x.png",
        "height": 56,
        "width": 100
      },
      "searchable": true,
      "shortName": ":ceilingcat:"
    },
    {
      "id": "atlassian-tableflip",
      "name": "table flip",
      "fallback": ":tableflip:",
      "type": "ATLASSIAN",
      "category": "ATLASSIAN",
      "order": -1000,
      "representation": {
        "imagePath": "https://pf-emoji-service--cdn.useast.atlassian.io/atlassian/table_flip@4x.png",
        "height": 64,
        "width": 588
      },
      "searchable": true,
      "shortName": ":tableflip:"
    },
    {
      "id": "atlassian-badjokeeel",
      "name": "bad joke eel",
      "fallback": ":badjokeeel:",
      "type": "ATLASSIAN",
      "category": "ATLASSIAN",
      "order": -1000,
      "representation": {
        "imagePath": "https://pf-emoji-service--cdn.useast.atlassian.io/atlassian/bad_joke_eel@4x.png",
        "height": 88,
        "width": 120
      },
      "searchable": true,
      "shortName": ":badjokeeel:"
    },
    {
      "id": "atlassian-washington",
      "name": "washington",
      "fallback": ":washington:",
      "type": "ATLASSIAN",
      "category": "ATLASSIAN",
      "order": -1000,
      "representation": {
        "imagePath": "https://pf-emoji-service--cdn.useast.atlassian.io/atlassian/washington@4x.png",
        "height": 100,
        "width": 100
      },
      "searchable": true,
      "shortName": ":washington:"
    },
    {
      "id": "atlassian-catchemall",
      "name": "catch em all",
      "fallback": ":catchemall:",
      "type": "ATLASSIAN",
      "category": "ATLASSIAN",
      "order": -1000,
      "representation": {
        "imagePath": "https://pf-emoji-service--cdn.useast.atlassian.io/atlassian/catch_em_all@4x.png",
        "height": 96,
        "width": 96
      },
      "searchable": true,
      "shortName": ":catchemall:"
    },
    {
      "id": "atlassian-areyoukiddingme",
      "name": "are you kidding me",
      "fallback": ":areyoukiddingme:",
      "type": "ATLASSIAN",
      "category": "ATLASSIAN",
      "order": -1000,
      "representation": {
        "imagePath": "https://pf-emoji-service--cdn.useast.atlassian.io/atlassian/are_you_kidding_me@4x.png",
        "height": 100,
        "width": 100
      },
      "searchable": true,
      "shortName": ":areyoukiddingme:"
    },
    {
      "id": "atlassian-candycorn",
      "name": "candy corn",
      "fallback": ":candycorn:",
      "type": "ATLASSIAN",
      "category": "ATLASSIAN",
      "order": -1000,
      "representation": {
        "imagePath": "https://pf-emoji-service--cdn.useast.atlassian.io/atlassian/candy_corn@4x.png",
        "height": 108,
        "width": 56
      },
      "searchable": true,
      "shortName": ":candycorn:"
    },
    {
      "id": "atlassian-pbr",
      "name": "pbr",
      "fallback": ":pbr:",
      "type": "ATLASSIAN",
      "category": "ATLASSIAN",
      "order": -1000,
      "representation": {
        "imagePath": "https://pf-emoji-service--cdn.useast.atlassian.io/atlassian/pbr@4x.png",
        "height": 96,
        "width": 52
      },
      "searchable": true,
      "shortName": ":pbr:"
    },
    {
      "id": "atlassian-waiting",
      "name": "waiting",
      "fallback": ":waiting:",
      "type": "ATLASSIAN",
      "category": "ATLASSIAN",
      "order": -1000,
      "representation": {
        "imagePath": "https://pf-emoji-service--cdn.useast.atlassian.io/atlassian/waiting.gif",
        "height": 30,
        "width": 30
      },
      "searchable": true,
      "shortName": ":waiting:"
    },
    {
      "id": "atlassian-boom",
      "name": "boom",
      "fallback": ":boom:",
      "type": "ATLASSIAN",
      "category": "ATLASSIAN",
      "order": -1000,
      "representation": {
        "imagePath": "https://pf-emoji-service--cdn.useast.atlassian.io/atlassian/boom.gif",
        "height": 30,
        "width": 30
      },
      "searchable": true,
      "shortName": ":boom:"
    },
    {
      "id": "atlassian-android",
      "name": "android",
      "fallback": ":android:",
      "type": "ATLASSIAN",
      "category": "ATLASSIAN",
      "order": -1000,
      "representation": {
        "imagePath": "https://pf-emoji-service--cdn.useast.atlassian.io/atlassian/android@4x.png",
        "height": 100,
        "width": 100
      },
      "searchable": true,
      "shortName": ":android:"
    },
    {
      "id": "atlassian-disappear",
      "name": "disappear",
      "fallback": ":disappear:",
      "type": "ATLASSIAN",
      "category": "ATLASSIAN",
      "order": -1000,
      "representation": {
        "imagePath": "https://pf-emoji-service--cdn.useast.atlassian.io/atlassian/disappear.gif",
        "height": 24,
        "width": 30
      },
      "searchable": true,
      "shortName": ":disappear:"
    },
    {
      "id": "atlassian-content",
      "name": "content",
      "fallback": ":content:",
      "type": "ATLASSIAN",
      "category": "ATLASSIAN",
      "order": -1000,
      "representation": {
        "imagePath": "https://pf-emoji-service--cdn.useast.atlassian.io/atlassian/content@4x.png",
        "height": 100,
        "width": 100
      },
      "searchable": true,
      "shortName": ":content:"
    },
    {
      "id": "atlassian-salute",
      "name": "salute",
      "fallback": ":salute:",
      "type": "ATLASSIAN",
      "category": "ATLASSIAN",
      "order": -1000,
      "representation": {
        "imagePath": "https://pf-emoji-service--cdn.useast.atlassian.io/atlassian/salute@4x.png",
        "height": 88,
        "width": 120
      },
      "searchable": true,
      "shortName": ":salute:"
    },
    {
      "id": "atlassian-fu",
      "name": "fu",
      "fallback": ":fu:",
      "type": "ATLASSIAN",
      "category": "ATLASSIAN",
      "order": -1000,
      "representation": {
        "imagePath": "https://pf-emoji-service--cdn.useast.atlassian.io/atlassian/fu@4x.png",
        "height": 100,
        "width": 96
      },
      "searchable": true,
      "shortName": ":fu:"
    },
    {
      "id": "atlassian-gates",
      "name": "gates",
      "fallback": ":gates:",
      "type": "ATLASSIAN",
      "category": "ATLASSIAN",
      "order": -1000,
      "representation": {
        "imagePath": "https://pf-emoji-service--cdn.useast.atlassian.io/atlassian/gates@4x.png",
        "height": 88,
        "width": 100
      },
      "searchable": true,
      "shortName": ":gates:"
    },
    {
      "id": "atlassian-arya",
      "name": "arya",
      "fallback": ":arya:",
      "type": "ATLASSIAN",
      "category": "ATLASSIAN",
      "order": -1000,
      "representation": {
        "imagePath": "https://pf-emoji-service--cdn.useast.atlassian.io/atlassian/arya@4x.png",
        "height": 120,
        "width": 96
      },
      "searchable": true,
      "shortName": ":arya:"
    },
    {
      "id": "atlassian-rockon",
      "name": "rockon",
      "fallback": ":rockon:",
      "type": "ATLASSIAN",
      "category": "ATLASSIAN",
      "order": -1000,
      "representation": {
        "imagePath": "https://pf-emoji-service--cdn.useast.atlassian.io/atlassian/rockon.gif",
        "height": 30,
        "width": 30
      },
      "searchable": true,
      "shortName": ":rockon:"
    },
    {
      "id": "atlassian-trellotaco",
      "name": "trellotaco",
      "fallback": ":trellotaco:",
      "type": "ATLASSIAN",
      "category": "ATLASSIAN",
      "order": -1000,
      "representation": {
        "imagePath": "https://pf-emoji-service--cdn.useast.atlassian.io/atlassian/trellotaco.png",
        "height": 30,
        "width": 30
      },
      "searchable": true,
      "shortName": ":trellotaco:"
    },
    {
      "id": "atlassian-stare",
      "name": "stare",
      "fallback": ":stare:",
      "type": "ATLASSIAN",
      "category": "ATLASSIAN",
      "order": -1000,
      "representation": {
        "imagePath": "https://pf-emoji-service--cdn.useast.atlassian.io/atlassian/stare@4x.png",
        "height": 100,
        "width": 136
      },
      "searchable": true,
      "shortName": ":stare:"
    },
    {
      "id": "atlassian-ohgodwhy",
      "name": "oh god why",
      "fallback": ":ohgodwhy:",
      "type": "ATLASSIAN",
      "category": "ATLASSIAN",
      "order": -1000,
      "representation": {
        "imagePath": "https://pf-emoji-service--cdn.useast.atlassian.io/atlassian/oh_god_why@4x.png",
        "height": 100,
        "width": 100
      },
      "searchable": true,
      "shortName": ":ohgodwhy:"
    },
    {
      "id": "atlassian-vote",
      "name": "vote",
      "fallback": ":vote:",
      "type": "ATLASSIAN",
      "category": "ATLASSIAN",
      "order": -1000,
      "representation": {
        "imagePath": "https://pf-emoji-service--cdn.useast.atlassian.io/atlassian/vote@4x.png",
        "height": 120,
        "width": 120
      },
      "searchable": true,
      "shortName": ":vote:"
    },
    {
      "id": "atlassian-successful",
      "name": "successful",
      "fallback": ":successful:",
      "type": "ATLASSIAN",
      "category": "ATLASSIAN",
      "order": -1000,
      "representation": {
        "imagePath": "https://pf-emoji-service--cdn.useast.atlassian.io/atlassian/successful@4x.png",
        "height": 64,
        "width": 64
      },
      "searchable": true,
      "shortName": ":successful:"
    },
    {
      "id": "atlassian-jake",
      "name": "jake",
      "fallback": ":jake:",
      "type": "ATLASSIAN",
      "category": "ATLASSIAN",
      "order": -1000,
      "representation": {
        "imagePath": "https://pf-emoji-service--cdn.useast.atlassian.io/atlassian/jake@4x.png",
        "height": 120,
        "width": 120
      },
      "searchable": true,
      "shortName": ":jake:"
    },
    {
      "id": "atlassian-awwyiss",
      "name": "aww yiss",
      "fallback": ":awwyiss:",
      "type": "ATLASSIAN",
      "category": "ATLASSIAN",
      "order": -1000,
      "representation": {
        "imagePath": "https://pf-emoji-service--cdn.useast.atlassian.io/atlassian/aww_yiss@4x.png",
        "height": 104,
        "width": 72
      },
      "searchable": true,
      "shortName": ":awwyiss:"
    },
    {
      "id": "atlassian-unacceptable",
      "name": "unacceptable",
      "fallback": ":unacceptable:",
      "type": "ATLASSIAN",
      "category": "ATLASSIAN",
      "order": -1000,
      "representation": {
        "imagePath": "https://pf-emoji-service--cdn.useast.atlassian.io/atlassian/unacceptable@4x.png",
        "height": 120,
        "width": 80
      },
      "searchable": true,
      "shortName": ":unacceptable:"
    },
    {
      "id": "atlassian-yodawg",
      "name": "yo dawg",
      "fallback": ":yodawg:",
      "type": "ATLASSIAN",
      "category": "ATLASSIAN",
      "order": -1000,
      "representation": {
        "imagePath": "https://pf-emoji-service--cdn.useast.atlassian.io/atlassian/yo_dawg@4x.png",
        "height": 120,
        "width": 120
      },
      "searchable": true,
      "shortName": ":yodawg:"
    },
    {
      "id": "atlassian-crucible",
      "name": "crucible",
      "fallback": ":crucible:",
      "type": "ATLASSIAN",
      "category": "ATLASSIAN",
      "order": -1000,
      "representation": {
        "imagePath": "https://pf-emoji-service--cdn.useast.atlassian.io/atlassian/crucible@4x.png",
        "height": 120,
        "width": 120
      },
      "searchable": true,
      "shortName": ":crucible:"
    },
    {
      "id": "atlassian-wat",
      "name": "wat",
      "fallback": ":wat:",
      "type": "ATLASSIAN",
      "category": "ATLASSIAN",
      "order": -1000,
      "representation": {
        "imagePath": "https://pf-emoji-service--cdn.useast.atlassian.io/atlassian/wat@4x.png",
        "height": 100,
        "width": 100
      },
      "searchable": true,
      "shortName": ":wat:"
    },
    {
      "id": "atlassian-indeed",
      "name": "indeed",
      "fallback": ":indeed:",
      "type": "ATLASSIAN",
      "category": "ATLASSIAN",
      "order": -1000,
      "representation": {
        "imagePath": "https://pf-emoji-service--cdn.useast.atlassian.io/atlassian/indeed@4x.png",
        "height": 120,
        "width": 120
      },
      "searchable": true,
      "shortName": ":indeed:"
    },
    {
      "id": "atlassian-yey",
      "name": "yey",
      "fallback": ":yey:",
      "type": "ATLASSIAN",
      "category": "ATLASSIAN",
      "order": -1000,
      "representation": {
        "imagePath": "https://pf-emoji-service--cdn.useast.atlassian.io/atlassian/yey@4x.png",
        "height": 100,
        "width": 100
      },
      "searchable": true,
      "shortName": ":yey:"
    },
    {
      "id": "atlassian-challengeaccepted",
      "name": "challenge accepted",
      "fallback": ":challengeaccepted:",
      "type": "ATLASSIAN",
      "category": "ATLASSIAN",
      "order": -1000,
      "representation": {
        "imagePath": "https://pf-emoji-service--cdn.useast.atlassian.io/atlassian/challenge_accepted@4x.png",
        "height": 112,
        "width": 92
      },
      "searchable": true,
      "shortName": ":challengeaccepted:"
    },
    {
      "id": "atlassian-huh",
      "name": "huh",
      "fallback": ":huh:",
      "type": "ATLASSIAN",
      "category": "ATLASSIAN",
      "order": -1000,
      "representation": {
        "imagePath": "https://pf-emoji-service--cdn.useast.atlassian.io/atlassian/huh@4x.png",
        "height": 100,
        "width": 100
      },
      "searchable": true,
      "shortName": ":huh:"
    },
    {
      "id": "atlassian-rebeccablack",
      "name": "rebecca black",
      "fallback": ":rebeccablack:",
      "type": "ATLASSIAN",
      "category": "ATLASSIAN",
      "order": -1000,
      "representation": {
        "imagePath": "https://pf-emoji-service--cdn.useast.atlassian.io/atlassian/rebecca_black@4x.png",
        "height": 100,
        "width": 80
      },
      "searchable": true,
      "shortName": ":rebeccablack:"
    },
    {
      "id": "atlassian-stash",
      "name": "stash",
      "fallback": ":stash:",
      "type": "ATLASSIAN",
      "category": "ATLASSIAN",
      "order": -1000,
      "representation": {
        "imagePath": "https://pf-emoji-service--cdn.useast.atlassian.io/atlassian/stash@4x.png",
        "height": 120,
        "width": 120
      },
      "searchable": true,
      "shortName": ":stash:"
    },
    {
      "id": "atlassian-basket",
      "name": "basket",
      "fallback": ":basket:",
      "type": "ATLASSIAN",
      "category": "ATLASSIAN",
      "order": -1000,
      "representation": {
        "imagePath": "https://pf-emoji-service--cdn.useast.atlassian.io/atlassian/basket@4x.png",
        "height": 100,
        "width": 100
      },
      "searchable": true,
      "shortName": ":basket:"
    },
    {
      "id": "atlassian-trump",
      "name": "trump",
      "fallback": ":trump:",
      "type": "ATLASSIAN",
      "category": "ATLASSIAN",
      "order": -1000,
      "representation": {
        "imagePath": "https://pf-emoji-service--cdn.useast.atlassian.io/atlassian/trump@4x.png",
        "height": 100,
        "width": 120
      },
      "searchable": true,
      "shortName": ":trump:"
    },
    {
      "id": "atlassian-foreveralone",
      "name": "forever alone",
      "fallback": ":foreveralone:",
      "type": "ATLASSIAN",
      "category": "ATLASSIAN",
      "order": -1000,
      "representation": {
        "imagePath": "https://pf-emoji-service--cdn.useast.atlassian.io/atlassian/forever_alone@4x.png",
        "height": 100,
        "width": 100
      },
      "searchable": true,
      "shortName": ":foreveralone:"
    },
    {
      "id": "atlassian-heygirl",
      "name": "hey girl",
      "fallback": ":heygirl:",
      "type": "ATLASSIAN",
      "category": "ATLASSIAN",
      "order": -1000,
      "representation": {
        "imagePath": "https://pf-emoji-service--cdn.useast.atlassian.io/atlassian/hey_girl@4x.png",
        "height": 120,
        "width": 120
      },
      "searchable": true,
      "shortName": ":heygirl:"
    },
    {
      "id": "atlassian-romney",
      "name": "romney",
      "fallback": ":romney:",
      "type": "ATLASSIAN",
      "category": "ATLASSIAN",
      "order": -1000,
      "representation": {
        "imagePath": "https://pf-emoji-service--cdn.useast.atlassian.io/atlassian/romney@4x.png",
        "height": 100,
        "width": 100
      },
      "searchable": true,
      "shortName": ":romney:"
    },
    {
      "id": "atlassian-krang",
      "name": "krang",
      "fallback": ":krang:",
      "type": "ATLASSIAN",
      "category": "ATLASSIAN",
      "order": -1000,
      "representation": {
        "imagePath": "https://pf-emoji-service--cdn.useast.atlassian.io/atlassian/krang@4x.png",
        "height": 112,
        "width": 120
      },
      "searchable": true,
      "shortName": ":krang:"
    },
    {
      "id": "atlassian-hodor",
      "name": "hodor",
      "fallback": ":hodor:",
      "type": "ATLASSIAN",
      "category": "ATLASSIAN",
      "order": -1000,
      "representation": {
        "imagePath": "https://pf-emoji-service--cdn.useast.atlassian.io/atlassian/hodor@4x.png",
        "height": 120,
        "width": 84
      },
      "searchable": true,
      "shortName": ":hodor:"
    },
    {
      "id": "atlassian-cornelius",
      "name": "cornelius",
      "fallback": ":cornelius:",
      "type": "ATLASSIAN",
      "category": "ATLASSIAN",
      "order": -1000,
      "representation": {
        "imagePath": "https://pf-emoji-service--cdn.useast.atlassian.io/atlassian/cornelius@4x.png",
        "height": 88,
        "width": 100
      },
      "searchable": true,
      "shortName": ":cornelius:"
    },
    {
      "id": "atlassian-kennypowers",
      "name": "kenny powers",
      "fallback": ":kennypowers:",
      "type": "ATLASSIAN",
      "category": "ATLASSIAN",
      "order": -1000,
      "representation": {
        "imagePath": "https://pf-emoji-service--cdn.useast.atlassian.io/atlassian/kenny_powers@4x.png",
        "height": 100,
        "width": 100
      },
      "searchable": true,
      "shortName": ":kennypowers:"
    },
    {
      "id": "atlassian-clarence",
      "name": "clarence",
      "fallback": ":clarence:",
      "type": "ATLASSIAN",
      "category": "ATLASSIAN",
      "order": -1000,
      "representation": {
        "imagePath": "https://pf-emoji-service--cdn.useast.atlassian.io/atlassian/clarence@4x.png",
        "height": 116,
        "width": 120
      },
      "searchable": true,
      "shortName": ":clarence:"
    },
    {
      "id": "atlassian-ashton",
      "name": "ashton",
      "fallback": ":ashton:",
      "type": "ATLASSIAN",
      "category": "ATLASSIAN",
      "order": -1000,
      "representation": {
        "imagePath": "https://pf-emoji-service--cdn.useast.atlassian.io/atlassian/ashton@4x.png",
        "height": 100,
        "width": 84
      },
      "searchable": true,
      "shortName": ":ashton:"
    },
    {
      "id": "atlassian-huehue",
      "name": "huehue",
      "fallback": ":huehue:",
      "type": "ATLASSIAN",
      "category": "ATLASSIAN",
      "order": -1000,
      "representation": {
        "imagePath": "https://pf-emoji-service--cdn.useast.atlassian.io/atlassian/huehue@4x.png",
        "height": 120,
        "width": 120
      },
      "searchable": true,
      "shortName": ":huehue:"
    },
    {
      "id": "atlassian-okay",
      "name": "okay",
      "fallback": ":okay:",
      "type": "ATLASSIAN",
      "category": "ATLASSIAN",
      "order": -1000,
      "representation": {
        "imagePath": "https://pf-emoji-service--cdn.useast.atlassian.io/atlassian/okay@4x.png",
        "height": 100,
        "width": 72
      },
      "searchable": true,
      "shortName": ":okay:"
    },
    {
      "id": "atlassian-scumbag",
      "name": "scumbag",
      "fallback": ":scumbag:",
      "type": "ATLASSIAN",
      "category": "ATLASSIAN",
      "order": -1000,
      "representation": {
        "imagePath": "https://pf-emoji-service--cdn.useast.atlassian.io/atlassian/scumbag@4x.png",
        "height": 64,
        "width": 100
      },
      "searchable": true,
      "shortName": ":scumbag:"
    },
    {
      "id": "atlassian-grumpycat",
      "name": "grumpy cat",
      "fallback": ":grumpycat:",
      "type": "ATLASSIAN",
      "category": "ATLASSIAN",
      "order": -1000,
      "representation": {
        "imagePath": "https://pf-emoji-service--cdn.useast.atlassian.io/atlassian/grumpy_cat@4x.png",
        "height": 120,
        "width": 88
      },
      "searchable": true,
      "shortName": ":grumpycat:"
    },
    {
      "id": "atlassian-borat",
      "name": "borat",
      "fallback": ":borat:",
      "type": "ATLASSIAN",
      "category": "ATLASSIAN",
      "order": -1000,
      "representation": {
        "imagePath": "https://pf-emoji-service--cdn.useast.atlassian.io/atlassian/borat@4x.png",
        "height": 120,
        "width": 120
      },
      "searchable": true,
      "shortName": ":borat:"
    },
    {
      "id": "atlassian-awyeah",
      "name": "aw yeah",
      "fallback": ":awyeah:",
      "type": "ATLASSIAN",
      "category": "ATLASSIAN",
      "order": -1000,
      "representation": {
        "imagePath": "https://pf-emoji-service--cdn.useast.atlassian.io/atlassian/aw_yeah@4x.png",
        "height": 72,
        "width": 120
      },
      "searchable": true,
      "shortName": ":awyeah:"
    },
    {
      "id": "atlassian-yougotitdude",
      "name": "you got it dude",
      "fallback": ":yougotitdude:",
      "type": "ATLASSIAN",
      "category": "ATLASSIAN",
      "order": -1000,
      "representation": {
        "imagePath": "https://pf-emoji-service--cdn.useast.atlassian.io/atlassian/you_got_it_dude.gif",
        "height": 25,
        "width": 48
      },
      "searchable": true,
      "shortName": ":yougotitdude:"
    },
    {
      "id": "atlassian-wtf",
      "name": "wtf",
      "fallback": ":wtf:",
      "type": "ATLASSIAN",
      "category": "ATLASSIAN",
      "order": -1000,
      "representation": {
        "imagePath": "https://pf-emoji-service--cdn.useast.atlassian.io/atlassian/wtf@4x.png",
        "height": 120,
        "width": 100
      },
      "searchable": true,
      "shortName": ":wtf:"
    },
    {
      "id": "atlassian-atlassian",
      "name": "atlassian",
      "fallback": ":atlassian:",
      "type": "ATLASSIAN",
      "category": "ATLASSIAN",
      "order": -1000,
      "representation": {
        "imagePath": "https://pf-emoji-service--cdn.useast.atlassian.io/atlassian/atlassian@4x.png",
        "height": 92,
        "width": 100
      },
      "searchable": true,
      "shortName": ":atlassian:"
    },
    {
      "id": "atlassian-jaime",
      "name": "jaime",
      "fallback": ":jaime:",
      "type": "ATLASSIAN",
      "category": "ATLASSIAN",
      "order": -1000,
      "representation": {
        "imagePath": "https://pf-emoji-service--cdn.useast.atlassian.io/atlassian/jaime@4x.png",
        "height": 120,
        "width": 104
      },
      "searchable": true,
      "shortName": ":jaime:"
    },
    {
      "id": "atlassian-gangnamstyle",
      "name": "gangnam style",
      "fallback": ":gangnamstyle:",
      "type": "ATLASSIAN",
      "category": "ATLASSIAN",
      "order": -1000,
      "representation": {
        "imagePath": "https://pf-emoji-service--cdn.useast.atlassian.io/atlassian/gangnam_style.gif",
        "height": 36,
        "width": 18
      },
      "searchable": true,
      "shortName": ":gangnamstyle:"
    },
    {
      "id": "atlassian-fry",
      "name": "fry",
      "fallback": ":fry:",
      "type": "ATLASSIAN",
      "category": "ATLASSIAN",
      "order": -1000,
      "representation": {
        "imagePath": "https://pf-emoji-service--cdn.useast.atlassian.io/atlassian/fry@4x.png",
        "height": 100,
        "width": 76
      },
      "searchable": true,
      "shortName": ":fry:"
    },
    {
      "id": "atlassian-paddlin",
      "name": "paddlin",
      "fallback": ":paddlin:",
      "type": "ATLASSIAN",
      "category": "ATLASSIAN",
      "order": -1000,
      "representation": {
        "imagePath": "https://pf-emoji-service--cdn.useast.atlassian.io/atlassian/paddlin@4x.png",
        "height": 96,
        "width": 120
      },
      "searchable": true,
      "shortName": ":paddlin:"
    },
    {
      "id": "atlassian-badtime",
      "name": "bad time",
      "fallback": ":badtime:",
      "type": "ATLASSIAN",
      "category": "ATLASSIAN",
      "order": -1000,
      "representation": {
        "imagePath": "https://pf-emoji-service--cdn.useast.atlassian.io/atlassian/bad_time@4x.png",
        "height": 120,
        "width": 120
      },
      "searchable": true,
      "shortName": ":badtime:"
    },
    {
      "id": "atlassian-carl",
      "name": "carl",
      "fallback": ":carl:",
      "type": "ATLASSIAN",
      "category": "ATLASSIAN",
      "order": -1000,
      "representation": {
        "imagePath": "https://pf-emoji-service--cdn.useast.atlassian.io/atlassian/carl@4x.png",
        "height": 80,
        "width": 120
      },
      "searchable": true,
      "shortName": ":carl:"
    },
    {
      "id": "atlassian-zoidberg",
      "name": "zoidberg",
      "fallback": ":zoidberg:",
      "type": "ATLASSIAN",
      "category": "ATLASSIAN",
      "order": -1000,
      "representation": {
        "imagePath": "https://pf-emoji-service--cdn.useast.atlassian.io/atlassian/zoidberg@4x.png",
        "height": 96,
        "width": 120
      },
      "searchable": true,
      "shortName": ":zoidberg:"
    },
    {
      "id": "atlassian-sweetjesus",
      "name": "sweet jesus",
      "fallback": ":sweetjesus:",
      "type": "ATLASSIAN",
      "category": "ATLASSIAN",
      "order": -1000,
      "representation": {
        "imagePath": "https://pf-emoji-service--cdn.useast.atlassian.io/atlassian/sweet_jesus@4x.png",
        "height": 100,
        "width": 112
      },
      "searchable": true,
      "shortName": ":sweetjesus:"
    },
    {
      "id": "atlassian-pride",
      "name": "pride",
      "fallback": ":pride:",
      "type": "ATLASSIAN",
      "category": "ATLASSIAN",
      "order": -1000,
      "representation": {
        "imagePath": "https://pf-emoji-service--cdn.useast.atlassian.io/atlassian/pride@4x.png",
        "height": 100,
        "width": 120
      },
      "searchable": true,
      "shortName": ":pride:"
    },
    {
      "id": "atlassian-rageguy",
      "name": "rage guy",
      "fallback": ":rageguy:",
      "type": "ATLASSIAN",
      "category": "ATLASSIAN",
      "order": -1000,
      "representation": {
        "imagePath": "https://pf-emoji-service--cdn.useast.atlassian.io/atlassian/rage_guy@4x.png",
        "height": 100,
        "width": 96
      },
      "searchable": true,
      "shortName": ":rageguy:"
    },
    {
      "id": "atlassian-motherofgod",
      "name": "mother of god",
      "fallback": ":motherofgod:",
      "type": "ATLASSIAN",
      "category": "ATLASSIAN",
      "order": -1000,
      "representation": {
        "imagePath": "https://pf-emoji-service--cdn.useast.atlassian.io/atlassian/mother_of_god.gif",
        "height": 23,
        "width": 30
      },
      "searchable": true,
      "shortName": ":motherofgod:"
    },
    {
      "id": "atlassian-doh",
      "name": "doh",
      "fallback": ":doh:",
      "type": "ATLASSIAN",
      "category": "ATLASSIAN",
      "order": -1000,
      "representation": {
        "imagePath": "https://pf-emoji-service--cdn.useast.atlassian.io/atlassian/doh@4x.png",
        "height": 120,
        "width": 104
      },
      "searchable": true,
      "shortName": ":doh:"
    },
    {
      "id": "atlassian-ilied",
      "name": "i lied",
      "fallback": ":ilied:",
      "type": "ATLASSIAN",
      "category": "ATLASSIAN",
      "order": -1000,
      "representation": {
        "imagePath": "https://pf-emoji-service--cdn.useast.atlassian.io/atlassian/i_lied@4x.png",
        "height": 100,
        "width": 116
      },
      "searchable": true,
      "shortName": ":ilied:"
    },
    {
      "id": "atlassian-caruso",
      "name": "caruso",
      "fallback": ":caruso:",
      "type": "ATLASSIAN",
      "category": "ATLASSIAN",
      "order": -1000,
      "representation": {
        "imagePath": "https://pf-emoji-service--cdn.useast.atlassian.io/atlassian/caruso@4x.png",
        "height": 88,
        "width": 120
      },
      "searchable": true,
      "shortName": ":caruso:"
    },
    {
      "id": "atlassian-pirate",
      "name": "pirate",
      "fallback": ":pirate:",
      "type": "ATLASSIAN",
      "category": "ATLASSIAN",
      "order": -1000,
      "representation": {
        "imagePath": "https://pf-emoji-service--cdn.useast.atlassian.io/atlassian/pirate@4x.png",
        "height": 72,
        "width": 72
      },
      "searchable": true,
      "shortName": ":pirate:"
    },
    {
      "id": "atlassian-truestory",
      "name": "true story",
      "fallback": ":truestory:",
      "type": "ATLASSIAN",
      "category": "ATLASSIAN",
      "order": -1000,
      "representation": {
        "imagePath": "https://pf-emoji-service--cdn.useast.atlassian.io/atlassian/true_story@4x.png",
        "height": 108,
        "width": 116
      },
      "searchable": true,
      "shortName": ":truestory:"
    },
    {
      "id": "atlassian-feelsbadman",
      "name": "feels bad man",
      "fallback": ":feelsbadman:",
      "type": "ATLASSIAN",
      "category": "ATLASSIAN",
      "order": -1000,
      "representation": {
        "imagePath": "https://pf-emoji-service--cdn.useast.atlassian.io/atlassian/feels_bad_man@4x.png",
        "height": 96,
        "width": 120
      },
      "searchable": true,
      "shortName": ":feelsbadman:"
    },
    {
      "id": "atlassian-lol",
      "name": "lol",
      "fallback": ":lol:",
      "type": "ATLASSIAN",
      "category": "ATLASSIAN",
      "order": -1000,
      "representation": {
        "imagePath": "https://pf-emoji-service--cdn.useast.atlassian.io/atlassian/lol@4x.png",
        "height": 100,
        "width": 100
      },
      "searchable": true,
      "shortName": ":lol:"
    },
    {
      "id": "atlassian-obama",
      "name": "obama",
      "fallback": ":obama:",
      "type": "ATLASSIAN",
      "category": "ATLASSIAN",
      "order": -1000,
      "representation": {
        "imagePath": "https://pf-emoji-service--cdn.useast.atlassian.io/atlassian/obama@4x.png",
        "height": 100,
        "width": 132
      },
      "searchable": true,
      "shortName": ":obama:"
    },
    {
      "id": "atlassian-joffrey",
      "name": "joffrey",
      "fallback": ":joffrey:",
      "type": "ATLASSIAN",
      "category": "ATLASSIAN",
      "order": -1000,
      "representation": {
        "imagePath": "https://pf-emoji-service--cdn.useast.atlassian.io/atlassian/joffrey@4x.png",
        "height": 120,
        "width": 88
      },
      "searchable": true,
      "shortName": ":joffrey:"
    },
    {
      "id": "atlassian-shamrock",
      "name": "shamrock",
      "fallback": ":shamrock:",
      "type": "ATLASSIAN",
      "category": "ATLASSIAN",
      "order": -1000,
      "representation": {
        "imagePath": "https://pf-emoji-service--cdn.useast.atlassian.io/atlassian/shamrock@4x.png",
        "height": 84,
        "width": 88
      },
      "searchable": true,
      "shortName": ":shamrock:"
    },
    {
      "id": "atlassian-awthanks",
      "name": "aw thanks",
      "fallback": ":awthanks:",
      "type": "ATLASSIAN",
      "category": "ATLASSIAN",
      "order": -1000,
      "representation": {
        "imagePath": "https://pf-emoji-service--cdn.useast.atlassian.io/atlassian/aw_thanks@4x.png",
        "height": 120,
        "width": 124
      },
      "searchable": true,
      "shortName": ":awthanks:"
    },
    {
      "id": "atlassian-unknown",
      "name": "unknown",
      "fallback": ":unknown:",
      "type": "ATLASSIAN",
      "category": "ATLASSIAN",
      "order": -1000,
      "representation": {
        "imagePath": "https://pf-emoji-service--cdn.useast.atlassian.io/atlassian/unknown@4x.png",
        "height": 64,
        "width": 64
      },
      "searchable": true,
      "shortName": ":unknown:"
    },
    {
      "id": "atlassian-haveaseat",
      "name": "have a seat",
      "fallback": ":haveaseat:",
      "type": "ATLASSIAN",
      "category": "ATLASSIAN",
      "order": -1000,
      "representation": {
        "imagePath": "https://pf-emoji-service--cdn.useast.atlassian.io/atlassian/have_a_seat@4x.png",
        "height": 100,
        "width": 72
      },
      "searchable": true,
      "shortName": ":haveaseat:"
    },
    {
      "id": "atlassian-jackie",
      "name": "jackie",
      "fallback": ":jackie:",
      "type": "ATLASSIAN",
      "category": "ATLASSIAN",
      "order": -1000,
      "representation": {
        "imagePath": "https://pf-emoji-service--cdn.useast.atlassian.io/atlassian/jackie@4x.png",
        "height": 72,
        "width": 120
      },
      "searchable": true,
      "shortName": ":jackie:"
    },
    {
      "id": "atlassian-ohcrap",
      "name": "oh crap",
      "fallback": ":ohcrap:",
      "type": "ATLASSIAN",
      "category": "ATLASSIAN",
      "order": -1000,
      "representation": {
        "imagePath": "https://pf-emoji-service--cdn.useast.atlassian.io/atlassian/oh_crap@4x.png",
        "height": 84,
        "width": 100
      },
      "searchable": true,
      "shortName": ":ohcrap:"
    },
    {
      "id": "atlassian-cerealspit",
      "name": "cereal spit",
      "fallback": ":cerealspit:",
      "type": "ATLASSIAN",
      "category": "ATLASSIAN",
      "order": -1000,
      "representation": {
        "imagePath": "https://pf-emoji-service--cdn.useast.atlassian.io/atlassian/cereal_spit@4x.png",
        "height": 96,
        "width": 164
      },
      "searchable": true,
      "shortName": ":cerealspit:"
    },
    {
      "id": "atlassian-nice",
      "name": "nice",
      "fallback": ":nice:",
      "type": "ATLASSIAN",
      "category": "ATLASSIAN",
      "order": -1000,
      "representation": {
        "imagePath": "https://pf-emoji-service--cdn.useast.atlassian.io/atlassian/nice@4x.png",
        "height": 112,
        "width": 120
      },
      "searchable": true,
      "shortName": ":nice:"
    },
    {
      "id": "atlassian-ohmy",
      "name": "oh my",
      "fallback": ":ohmy:",
      "type": "ATLASSIAN",
      "category": "ATLASSIAN",
      "order": -1000,
      "representation": {
        "imagePath": "https://pf-emoji-service--cdn.useast.atlassian.io/atlassian/oh_my@4x.png",
        "height": 120,
        "width": 92
      },
      "searchable": true,
      "shortName": ":ohmy:"
    },
    {
      "id": "atlassian-rudolph",
      "name": "rudolph",
      "fallback": ":rudolph:",
      "type": "ATLASSIAN",
      "category": "ATLASSIAN",
      "order": -1000,
      "representation": {
        "imagePath": "https://pf-emoji-service--cdn.useast.atlassian.io/atlassian/rudolph@4x.png",
        "height": 64,
        "width": 100
      },
      "searchable": true,
      "shortName": ":rudolph:"
    },
    {
      "id": "atlassian-bicepright",
      "name": "bicep right",
      "fallback": ":bicepright:",
      "type": "ATLASSIAN",
      "category": "ATLASSIAN",
      "order": -1000,
      "representation": {
        "imagePath": "https://pf-emoji-service--cdn.useast.atlassian.io/atlassian/bicep_right@4x.png",
        "height": 120,
        "width": 100
      },
      "searchable": true,
      "shortName": ":bicepright:"
    },
    {
      "id": "atlassian-notit",
      "name": "not it",
      "fallback": ":notit:",
      "type": "ATLASSIAN",
      "category": "ATLASSIAN",
      "order": -1000,
      "representation": {
        "imagePath": "https://pf-emoji-service--cdn.useast.atlassian.io/atlassian/not_it@4x.png",
        "height": 120,
        "width": 96
      },
      "searchable": true,
      "shortName": ":notit:"
    },
    {
      "id": "atlassian-celeryman",
      "name": "celery man",
      "fallback": ":celeryman:",
      "type": "ATLASSIAN",
      "category": "ATLASSIAN",
      "order": -1000,
      "representation": {
        "imagePath": "https://pf-emoji-service--cdn.useast.atlassian.io/atlassian/celery_man.gif",
        "height": 30,
        "width": 18
      },
      "searchable": true,
      "shortName": ":celeryman:"
    },
    {
      "id": "atlassian-bumble",
      "name": "bumble",
      "fallback": ":bumble:",
      "type": "ATLASSIAN",
      "category": "ATLASSIAN",
      "order": -1000,
      "representation": {
        "imagePath": "https://pf-emoji-service--cdn.useast.atlassian.io/atlassian/bumble@4x.png",
        "height": 112,
        "width": 120
      },
      "searchable": true,
      "shortName": ":bumble:"
    },
    {
      "id": "atlassian-trello",
      "name": "trello",
      "fallback": ":trello:",
      "type": "ATLASSIAN",
      "category": "ATLASSIAN",
      "order": -1000,
      "representation": {
        "imagePath": "https://pf-emoji-service--cdn.useast.atlassian.io/atlassian/trello.png",
        "height": 30,
        "width": 30
      },
      "searchable": true,
      "shortName": ":trello:"
    },
    {
      "id": "atlassian-hugefan",
      "name": "huge fan",
      "fallback": ":hugefan:",
      "type": "ATLASSIAN",
      "category": "ATLASSIAN",
      "order": -1000,
      "representation": {
        "imagePath": "https://pf-emoji-service--cdn.useast.atlassian.io/atlassian/huge_fan@4x.png",
        "height": 120,
        "width": 120
      },
      "searchable": true,
      "shortName": ":hugefan:"
    },
    {
      "id": "atlassian-haha",
      "name": "haha",
      "fallback": ":haha:",
      "type": "ATLASSIAN",
      "category": "ATLASSIAN",
      "order": -1000,
      "representation": {
        "imagePath": "https://pf-emoji-service--cdn.useast.atlassian.io/atlassian/haha@4x.png",
        "height": 80,
        "width": 120
      },
      "searchable": true,
      "shortName": ":haha:"
    },
    {
      "id": "atlassian-giggity",
      "name": "giggity",
      "fallback": ":giggity:",
      "type": "ATLASSIAN",
      "category": "ATLASSIAN",
      "order": -1000,
      "representation": {
        "imagePath": "https://pf-emoji-service--cdn.useast.atlassian.io/atlassian/giggity@4x.png",
        "height": 120,
        "width": 112
      },
      "searchable": true,
      "shortName": ":giggity:"
    },
    {
      "id": "atlassian-badpokerface",
      "name": "bad poker face",
      "fallback": ":badpokerface:",
      "type": "ATLASSIAN",
      "category": "ATLASSIAN",
      "order": -1000,
      "representation": {
        "imagePath": "https://pf-emoji-service--cdn.useast.atlassian.io/atlassian/bad_poker_face@4x.png",
        "height": 100,
        "width": 76
      },
      "searchable": true,
      "shortName": ":badpokerface:"
    },
    {
      "id": "atlassian-ned",
      "name": "ned",
      "fallback": ":ned:",
      "type": "ATLASSIAN",
      "category": "ATLASSIAN",
      "order": -1000,
      "representation": {
        "imagePath": "https://pf-emoji-service--cdn.useast.atlassian.io/atlassian/ned@4x.png",
        "height": 100,
        "width": 92
      },
      "searchable": true,
      "shortName": ":ned:"
    },
    {
      "id": "atlassian-downvote",
      "name": "down vote",
      "fallback": ":downvote:",
      "type": "ATLASSIAN",
      "category": "ATLASSIAN",
      "order": -1000,
      "representation": {
        "imagePath": "https://pf-emoji-service--cdn.useast.atlassian.io/atlassian/down_vote@4x.png",
        "height": 120,
        "width": 116
      },
      "searchable": true,
      "shortName": ":downvote:"
    },
    {
      "id": "atlassian-thatthing",
      "name": "that thing",
      "fallback": ":thatthing:",
      "type": "ATLASSIAN",
      "category": "ATLASSIAN",
      "order": -1000,
      "representation": {
        "imagePath": "https://pf-emoji-service--cdn.useast.atlassian.io/atlassian/that_thing@4x.png",
        "height": 88,
        "width": 120
      },
      "searchable": true,
      "shortName": ":thatthing:"
    },
    {
      "id": "atlassian-megusta",
      "name": "me gusta",
      "fallback": ":megusta:",
      "type": "ATLASSIAN",
      "category": "ATLASSIAN",
      "order": -1000,
      "representation": {
        "imagePath": "https://pf-emoji-service--cdn.useast.atlassian.io/atlassian/me_gusta@4x.png",
        "height": 100,
        "width": 96
      },
      "searchable": true,
      "shortName": ":megusta:"
    },
    {
      "id": "atlassian-seomoz",
      "name": "seomoz",
      "fallback": ":seomoz:",
      "type": "ATLASSIAN",
      "category": "ATLASSIAN",
      "order": -1000,
      "representation": {
        "imagePath": "https://pf-emoji-service--cdn.useast.atlassian.io/atlassian/seomoz@4x.png",
        "height": 100,
        "width": 84
      },
      "searchable": true,
      "shortName": ":seomoz:"
    },
    {
      "id": "atlassian-goodnews",
      "name": "good news",
      "fallback": ":goodnews:",
      "type": "ATLASSIAN",
      "category": "ATLASSIAN",
      "order": -1000,
      "representation": {
        "imagePath": "https://pf-emoji-service--cdn.useast.atlassian.io/atlassian/good_news@4x.png",
        "height": 116,
        "width": 120
      },
      "searchable": true,
      "shortName": ":goodnews:"
    },
    {
      "id": "atlassian-jira",
      "name": "jira",
      "fallback": ":jira:",
      "type": "ATLASSIAN",
      "category": "ATLASSIAN",
      "order": -1000,
      "representation": {
        "imagePath": "https://pf-emoji-service--cdn.useast.atlassian.io/atlassian/jira@4x.png",
        "height": 120,
        "width": 120
      },
      "searchable": true,
      "shortName": ":jira:"
    },
    {
      "id": "atlassian-philosoraptor",
      "name": "philosoraptor",
      "fallback": ":philosoraptor:",
      "type": "ATLASSIAN",
      "category": "ATLASSIAN",
      "order": -1000,
      "representation": {
        "imagePath": "https://pf-emoji-service--cdn.useast.atlassian.io/atlassian/philosoraptor@4x.png",
        "height": 84,
        "width": 100
      },
      "searchable": true,
      "shortName": ":philosoraptor:"
    },
    {
      "id": "atlassian-sadpanda",
      "name": "sad panda",
      "fallback": ":sadpanda:",
      "type": "ATLASSIAN",
      "category": "ATLASSIAN",
      "order": -1000,
      "representation": {
        "imagePath": "https://pf-emoji-service--cdn.useast.atlassian.io/atlassian/sad_panda@4x.png",
        "height": 120,
        "width": 112
      },
      "searchable": true,
      "shortName": ":sadpanda:"
    },
    {
      "id": "atlassian-tree",
      "name": "tree",
      "fallback": ":tree:",
      "type": "ATLASSIAN",
      "category": "ATLASSIAN",
      "order": -1000,
      "representation": {
        "imagePath": "https://pf-emoji-service--cdn.useast.atlassian.io/atlassian/tree@4x.png",
        "height": 96,
        "width": 96
      },
      "searchable": true,
      "shortName": ":tree:"
    },
    {
      "id": "atlassian-failed",
      "name": "failed",
      "fallback": ":failed:",
      "type": "ATLASSIAN",
      "category": "ATLASSIAN",
      "order": -1000,
      "representation": {
        "imagePath": "https://pf-emoji-service--cdn.useast.atlassian.io/atlassian/failed@4x.png",
        "height": 64,
        "width": 64
      },
      "searchable": true,
      "shortName": ":failed:"
    },
    {
      "id": "atlassian-tywin",
      "name": "tywin",
      "fallback": ":tywin:",
      "type": "ATLASSIAN",
      "category": "ATLASSIAN",
      "order": -1000,
      "representation": {
        "imagePath": "https://pf-emoji-service--cdn.useast.atlassian.io/atlassian/tywin@4x.png",
        "height": 120,
        "width": 88
      },
      "searchable": true,
      "shortName": ":tywin:"
    },
    {
      "id": "atlassian-cereal",
      "name": "cereal",
      "fallback": ":cereal:",
      "type": "ATLASSIAN",
      "category": "ATLASSIAN",
      "order": -1000,
      "representation": {
        "imagePath": "https://pf-emoji-service--cdn.useast.atlassian.io/atlassian/cereal@4x.png",
        "height": 96,
        "width": 100
      },
      "searchable": true,
      "shortName": ":cereal:"
    },
    {
      "id": "atlassian-fisheye",
      "name": "fisheye",
      "fallback": ":fisheye:",
      "type": "ATLASSIAN",
      "category": "ATLASSIAN",
      "order": -1000,
      "representation": {
        "imagePath": "https://pf-emoji-service--cdn.useast.atlassian.io/atlassian/fisheye@4x.png",
        "height": 120,
        "width": 120
      },
      "searchable": true,
      "shortName": ":fisheye:"
    },
    {
      "id": "atlassian-theyregreat",
      "name": "they're great",
      "fallback": ":theyregreat:",
      "type": "ATLASSIAN",
      "category": "ATLASSIAN",
      "order": -1000,
      "representation": {
        "imagePath": "https://pf-emoji-service--cdn.useast.atlassian.io/atlassian/they're_great@4x.png",
        "height": 120,
        "width": 120
      },
      "searchable": true,
      "shortName": ":theyregreat:"
    },
    {
      "id": "atlassian-present",
      "name": "present",
      "fallback": ":present:",
      "type": "ATLASSIAN",
      "category": "ATLASSIAN",
      "order": -1000,
      "representation": {
        "imagePath": "https://pf-emoji-service--cdn.useast.atlassian.io/atlassian/present@4x.png",
        "height": 64,
        "width": 64
      },
      "searchable": true,
      "shortName": ":present:"
    },
    {
      "id": "atlassian-fwp",
      "name": "fwp",
      "fallback": ":fwp:",
      "type": "ATLASSIAN",
      "category": "ATLASSIAN",
      "order": -1000,
      "representation": {
        "imagePath": "https://pf-emoji-service--cdn.useast.atlassian.io/atlassian/fwp@4x.png",
        "height": 100,
        "width": 120
      },
      "searchable": true,
      "shortName": ":fwp:"
    },
    {
      "id": "atlassian-notsureif",
      "name": "not sure if",
      "fallback": ":notsureif:",
      "type": "ATLASSIAN",
      "category": "ATLASSIAN",
      "order": -1000,
      "representation": {
        "imagePath": "https://pf-emoji-service--cdn.useast.atlassian.io/atlassian/not_sure_if@4x.png",
        "height": 100,
        "width": 76
      },
      "searchable": true,
      "shortName": ":notsureif:"
    },
    {
      "id": "atlassian-hipster",
      "name": "hipster",
      "fallback": ":hipster:",
      "type": "ATLASSIAN",
      "category": "ATLASSIAN",
      "order": -1000,
      "representation": {
        "imagePath": "https://pf-emoji-service--cdn.useast.atlassian.io/atlassian/hipster@4x.png",
        "height": 100,
        "width": 100
      },
      "searchable": true,
      "shortName": ":hipster:"
    },
    {
      "id": "atlassian-dumb",
      "name": "dumb",
      "fallback": ":dumb:",
      "type": "ATLASSIAN",
      "category": "ATLASSIAN",
      "order": -1000,
      "representation": {
        "imagePath": "https://pf-emoji-service--cdn.useast.atlassian.io/atlassian/dumb@4x.png",
        "height": 120,
        "width": 100
      },
      "searchable": true,
      "shortName": ":dumb:"
    },
    {
      "id": "atlassian-taft",
      "name": "taft",
      "fallback": ":taft:",
      "type": "ATLASSIAN",
      "category": "ATLASSIAN",
      "order": -1000,
      "representation": {
        "imagePath": "https://pf-emoji-service--cdn.useast.atlassian.io/atlassian/taft@4x.png",
        "height": 100,
        "width": 100
      },
      "searchable": true,
      "shortName": ":taft:"
    },
    {
      "id": "atlassian-jonsnow",
      "name": "jonsnow",
      "fallback": ":jonsnow:",
      "type": "ATLASSIAN",
      "category": "ATLASSIAN",
      "order": -1000,
      "representation": {
        "imagePath": "https://pf-emoji-service--cdn.useast.atlassian.io/atlassian/jonsnow@4x.png",
        "height": 100,
        "width": 120
      },
      "searchable": true,
      "shortName": ":jonsnow:"
    },
    {
      "id": "atlassian-meh",
      "name": "meh",
      "fallback": ":meh:",
      "type": "ATLASSIAN",
      "category": "ATLASSIAN",
      "order": -1000,
      "representation": {
        "imagePath": "https://pf-emoji-service--cdn.useast.atlassian.io/atlassian/meh@4x.png",
        "height": 80,
        "width": 96
      },
      "searchable": true,
      "shortName": ":meh:"
    },
    {
      "id": "atlassian-fuckyeah",
      "name": "fuck yeah",
      "fallback": ":fuckyeah:",
      "type": "ATLASSIAN",
      "category": "ATLASSIAN",
      "order": -1000,
      "representation": {
        "imagePath": "https://pf-emoji-service--cdn.useast.atlassian.io/atlassian/fuck_yeah@4x.png",
        "height": 92,
        "width": 100
      },
      "searchable": true,
      "shortName": ":fuckyeah:"
    },
    {
      "id": "atlassian-goldstar",
      "name": "gold star",
      "fallback": ":goldstar:",
      "type": "ATLASSIAN",
      "category": "ATLASSIAN",
      "order": -1000,
      "representation": {
        "imagePath": "https://pf-emoji-service--cdn.useast.atlassian.io/atlassian/gold_star@4x.png",
        "height": 80,
        "width": 80
      },
      "searchable": true,
      "shortName": ":goldstar:"
    },
    {
      "id": "atlassian-sap",
      "name": "sap",
      "fallback": ":sap:",
      "type": "ATLASSIAN",
      "category": "ATLASSIAN",
      "order": -1000,
      "representation": {
        "imagePath": "https://pf-emoji-service--cdn.useast.atlassian.io/atlassian/sap@4x.png",
        "height": 120,
        "width": 120
      },
      "searchable": true,
      "shortName": ":sap:"
    },
    {
      "id": "atlassian-yuno",
      "name": "yuno",
      "fallback": ":yuno:",
      "type": "ATLASSIAN",
      "category": "ATLASSIAN",
      "order": -1000,
      "representation": {
        "imagePath": "https://pf-emoji-service--cdn.useast.atlassian.io/atlassian/yuno@4x.png",
        "height": 120,
        "width": 120
      },
      "searchable": true,
      "shortName": ":yuno:"
    },
    {
      "id": "atlassian-chef",
      "name": "chef",
      "fallback": ":chef:",
      "type": "ATLASSIAN",
      "category": "ATLASSIAN",
      "order": -1000,
      "representation": {
        "imagePath": "https://pf-emoji-service--cdn.useast.atlassian.io/atlassian/chef@4x.png",
        "height": 120,
        "width": 88
      },
      "searchable": true,
      "shortName": ":chef:"
    },
    {
      "id": "atlassian-chewie",
      "name": "chewie",
      "fallback": ":chewie:",
      "type": "ATLASSIAN",
      "category": "ATLASSIAN",
      "order": -1000,
      "representation": {
        "imagePath": "https://pf-emoji-service--cdn.useast.atlassian.io/atlassian/chewie@4x.png",
        "height": 100,
        "width": 96
      },
      "searchable": true,
      "shortName": ":chewie:"
    },
    {
      "id": "atlassian-dealwithit",
      "name": "deal with it",
      "fallback": ":dealwithit:",
      "type": "ATLASSIAN",
      "category": "ATLASSIAN",
      "order": -1000,
      "representation": {
        "imagePath": "https://pf-emoji-service--cdn.useast.atlassian.io/atlassian/deal_with_it.gif",
        "height": 22,
        "width": 35
      },
      "searchable": true,
      "shortName": ":dealwithit:"
    },
    {
      "id": "atlassian-finn",
      "name": "finn",
      "fallback": ":finn:",
      "type": "ATLASSIAN",
      "category": "ATLASSIAN",
      "order": -1000,
      "representation": {
        "imagePath": "https://pf-emoji-service--cdn.useast.atlassian.io/atlassian/finn@4x.png",
        "height": 92,
        "width": 120
      },
      "searchable": true,
      "shortName": ":finn:"
    },
    {
      "id": "atlassian-sourcetree",
      "name": "sourcetree",
      "fallback": ":sourcetree:",
      "type": "ATLASSIAN",
      "category": "ATLASSIAN",
      "order": -1000,
      "representation": {
        "imagePath": "https://pf-emoji-service--cdn.useast.atlassian.io/atlassian/sourcetree@4x.png",
        "height": 120,
        "width": 120
      },
      "searchable": true,
      "shortName": ":sourcetree:"
    },
    {
      "id": "atlassian-arrington",
      "name": "arrington",
      "fallback": ":arrington:",
      "type": "ATLASSIAN",
      "category": "ATLASSIAN",
      "order": -1000,
      "representation": {
        "imagePath": "https://pf-emoji-service--cdn.useast.atlassian.io/atlassian/arrington@4x.png",
        "height": 100,
        "width": 72
      },
      "searchable": true,
      "shortName": ":arrington:"
    },
    {
      "id": "atlassian-lolwut",
      "name": "lolwut",
      "fallback": ":lolwut:",
      "type": "ATLASSIAN",
      "category": "ATLASSIAN",
      "order": -1000,
      "representation": {
        "imagePath": "https://pf-emoji-service--cdn.useast.atlassian.io/atlassian/lolwut@4x.png",
        "height": 120,
        "width": 88
      },
      "searchable": true,
      "shortName": ":lolwut:"
    },
    {
      "id": "atlassian-pumpkin",
      "name": "pumpkin",
      "fallback": ":pumpkin:",
      "type": "ATLASSIAN",
      "category": "ATLASSIAN",
      "order": -1000,
      "representation": {
        "imagePath": "https://pf-emoji-service--cdn.useast.atlassian.io/atlassian/pumpkin@4x.png",
        "height": 96,
        "width": 96
      },
      "searchable": true,
      "shortName": ":pumpkin:"
    }
  ],
  "meta": {
    "spriteSheets": {}
  }
}
